%YAML 1.1
%TAG !u! tag:unity3d.com,2011:
--- !u!114 &11400000
MonoBehaviour:
  m_ObjectHideFlags: 0
  m_CorrespondingSourceObject: {fileID: 0}
  m_PrefabInstance: {fileID: 0}
  m_PrefabAsset: {fileID: 0}
  m_GameObject: {fileID: 0}
  m_Enabled: 1
  m_EditorHideFlags: 0
  m_Script: {fileID: 11500000, guid: b0689d162afa47f4591d848e9c639c3b, type: 3}
  m_Name: Player
  m_EditorClassIdentifier: 
  lookSensitivity: 10
  speed: 12
  gravity: -9.81
  jumpHeight: 3
  groundCheckDistance: 0.4
  groundMask:
    serializedVersion: 2
    m_Bits: 1
