%YAML 1.1
%TAG !u! tag:unity3d.com,2011:
--- !u!114 &11400000
MonoBehaviour:
  m_ObjectHideFlags: 0
  m_CorrespondingSourceObject: {fileID: 0}
  m_PrefabInstance: {fileID: 0}
  m_PrefabAsset: {fileID: 0}
  m_GameObject: {fileID: 0}
  m_Enabled: 1
  m_EditorHideFlags: 0
  m_Script: {fileID: 11500000, guid: bbb281ee3bf0b054c82ac2347e9e782c, type: 3}
  m_Name: Default Local Group
  m_EditorClassIdentifier: 
  m_GroupName: Default Local Group
  m_Data:
    m_SerializedData: []
  m_GUID: 00b40cfc7d3c31844b63ae999b7c53e3
  m_SerializeEntries: []
  m_ReadOnly: 0
  m_Settings: {fileID: 11400000, guid: 7fa51d776875f62408e6bc933756c4de, type: 2}
  m_SchemaSet:
    m_Schemas:
    - {fileID: 11400000, guid: 66a8efd78cb8dcf45b3ecd6ed6d1dbca, type: 2}
    - {fileID: 11400000, guid: bfe91efc8b5cff54cb2f803508e6f7ec, type: 2}
