%YAML 1.1
%TAG !u! tag:unity3d.com,2011:
--- !u!114 &11400000
MonoBehaviour:
  m_ObjectHideFlags: 0
  m_CorrespondingSourceObject: {fileID: 0}
  m_PrefabInstance: {fileID: 0}
  m_PrefabAsset: {fileID: 0}
  m_GameObject: {fileID: 0}
  m_Enabled: 1
  m_EditorHideFlags: 0
  m_Script: {fileID: 11500000, guid: bbb281ee3bf0b054c82ac2347e9e782c, type: 3}
  m_Name: Localization-String-Tables-Spanish (es)
  m_EditorClassIdentifier: 
  m_GroupName: Localization-String-Tables-Spanish (es)
  m_Data:
    m_SerializedData: []
  m_GUID: 7bf33c6e2953a6946a03883950ac7fbd
  m_SerializeEntries:
  - m_GUID: fee4db9d317e2dd45a9f08c58f38f8b7
    m_Address: LifeIsTheGame_es
    m_ReadOnly: 1
    m_SerializedLabels:
    - Locale-es
  m_ReadOnly: 1
  m_Settings: {fileID: 11400000, guid: 7fa51d776875f62408e6bc933756c4de, type: 2}
  m_SchemaSet:
    m_Schemas:
    - {fileID: 11400000, guid: 9a3d5f22b63a74f48912170b1a3fea26, type: 2}
    - {fileID: 11400000, guid: 2096b79d397b4ef47af90d07ba9772fe, type: 2}
