%YAML 1.1
%TAG !u! tag:unity3d.com,2011:
--- !u!114 &11400000
MonoBehaviour:
  m_ObjectHideFlags: 0
  m_CorrespondingSourceObject: {fileID: 0}
  m_PrefabInstance: {fileID: 0}
  m_PrefabAsset: {fileID: 0}
  m_GameObject: {fileID: 0}
  m_Enabled: 1
  m_EditorHideFlags: 0
  m_Script: {fileID: 11500000, guid: bbb281ee3bf0b054c82ac2347e9e782c, type: 3}
  m_Name: Localization-Locales
  m_EditorClassIdentifier: 
  m_GroupName: Localization-Locales
  m_Data:
    m_SerializedData: []
  m_GUID: 18f280343da5f4447aab2822502a1e5e
  m_SerializeEntries:
  - m_GUID: c3d1b8ac75a3485458226ff28d765b18
    m_Address: English (en)
    m_ReadOnly: 1
    m_SerializedLabels:
    - Locale
  - m_GUID: ac60963308767694ea8fc38c0a8f8926
    m_Address: Spanish (es)
    m_ReadOnly: 1
    m_SerializedLabels:
    - Locale
  m_ReadOnly: 1
  m_Settings: {fileID: 11400000, guid: 7fa51d776875f62408e6bc933756c4de, type: 2}
  m_SchemaSet:
    m_Schemas:
    - {fileID: 11400000, guid: ed4c23bde9d96d44f96e7d352c84a43c, type: 2}
    - {fileID: 11400000, guid: 3588aa77531f9fb4f8917ea331231580, type: 2}
