%YAML 1.1
%TAG !u! tag:unity3d.com,2011:
--- !u!114 &11400000
MonoBehaviour:
  m_ObjectHideFlags: 0
  m_CorrespondingSourceObject: {fileID: 0}
  m_PrefabInstance: {fileID: 0}
  m_PrefabAsset: {fileID: 0}
  m_GameObject: {fileID: 0}
  m_Enabled: 1
  m_EditorHideFlags: 0
  m_Script: {fileID: 11500000, guid: 468a46d0ae32c3544b7d98094e6448a9, type: 3}
  m_Name: AddressableAssetSettings
  m_EditorClassIdentifier: 
  m_DefaultGroup: 00b40cfc7d3c31844b63ae999b7c53e3
  m_CachedHash:
    serializedVersion: 2
    Hash: 00000000000000000000000000000000
  m_OptimizeCatalogSize: 0
  m_BuildRemoteCatalog: 0
  m_BundleLocalCatalog: 0
  m_CatalogRequestsTimeout: 0
  m_DisableCatalogUpdateOnStart: 0
  m_IgnoreUnsupportedFilesInBuild: 0
  m_UniqueBundleIds: 0
  m_NonRecursiveBuilding: 1
  m_CCDEnabled: 0
  m_maxConcurrentWebRequests: 500
  m_ContiguousBundles: 1
  m_StripUnityVersionFromBundleBuild: 0
  m_DisableVisibleSubAssetRepresentations: 0
  m_ShaderBundleNaming: 0
  m_ShaderBundleCustomNaming: 
  m_MonoScriptBundleNaming: 0
  m_MonoScriptBundleCustomNaming: 
  m_RemoteCatalogBuildPath:
    m_Id: 
  m_RemoteCatalogLoadPath:
    m_Id: 
  m_ContentStateBuildPath: 
  m_BuildAddressablesWithPlayerBuild: 0
  m_overridePlayerVersion: 
  m_GroupAssets:
  - {fileID: 11400000, guid: 0a357bab5a3d14b4f9ac43e5e0481661, type: 2}
  - {fileID: 11400000, guid: 0534fe1050e984642bb45d180631d994, type: 2}
  - {fileID: 11400000, guid: 9414186dba7443a4fafb0ed35b060b80, type: 2}
  - {fileID: 11400000, guid: 4451d92fcc4f8164098e3e12a604458d, type: 2}
  - {fileID: 11400000, guid: 712a0a4476ae7204caa24e99eb2d611f, type: 2}
  - {fileID: 11400000, guid: 9bcd4a08f75cea545afa0112764d5654, type: 2}
  m_BuildSettings:
    m_CompileScriptsInVirtualMode: 0
    m_CleanupStreamingAssetsAfterBuilds: 1
    m_LogResourceManagerExceptions: 1
    m_BundleBuildPath: Temp/com.unity.addressables/AssetBundles
  m_ProfileSettings:
    m_Profiles:
    - m_InheritedParent: 
      m_Id: 4df1744e6da5ff14198c198257a9f14d
      m_ProfileName: Default
      m_Values:
      - m_Id: 5dcb1f76920431c4092e246f6f6e9af2
        m_Value: '[UnityEditor.EditorUserBuildSettings.activeBuildTarget]'
      - m_Id: 8e0a4a206b8bca447831c45be8fdcda4
        m_Value: '[UnityEngine.AddressableAssets.Addressables.BuildPath]/[BuildTarget]'
      - m_Id: a4742c62c131dbc48a1ffd5779239ff9
        m_Value: '{UnityEngine.AddressableAssets.Addressables.RuntimePath}/[BuildTarget]'
      - m_Id: 0e7bcea4f34ad944aaaaa03b9571e7cd
        m_Value: ServerData/[BuildTarget]
      - m_Id: f99cd691707177c44812d2e5ec8b75dc
        m_Value: http://[PrivateIpAddress]:[HostingServicePort]
    m_ProfileEntryNames:
    - m_Id: 5dcb1f76920431c4092e246f6f6e9af2
      m_Name: BuildTarget
      m_InlineUsage: 0
    - m_Id: 8e0a4a206b8bca447831c45be8fdcda4
      m_Name: Local.BuildPath
      m_InlineUsage: 0
    - m_Id: a4742c62c131dbc48a1ffd5779239ff9
      m_Name: Local.LoadPath
      m_InlineUsage: 0
    - m_Id: 0e7bcea4f34ad944aaaaa03b9571e7cd
      m_Name: Remote.BuildPath
      m_InlineUsage: 0
    - m_Id: f99cd691707177c44812d2e5ec8b75dc
      m_Name: Remote.LoadPath
      m_InlineUsage: 0
    m_ProfileVersion: 1
  m_LabelTable:
    m_LabelNames:
    - default
    - Locale
    - Locale-en
    - Locale-es
  m_SchemaTemplates: []
  m_GroupTemplateObjects:
  - {fileID: 11400000, guid: 53258f4038c1581428fd653efba3418b, type: 2}
  m_InitializationObjects: []
  m_CertificateHandlerType:
    m_AssemblyName: 
    m_ClassName: 
  m_ActivePlayerDataBuilderIndex: 3
  m_DataBuilders:
  - {fileID: 11400000, guid: c1d41578df096a64ebe940851edc9ba7, type: 2}
  - {fileID: 11400000, guid: 496444769b8e99d46a70f5054febb997, type: 2}
  - {fileID: 11400000, guid: e2ff68efe304f81488bffeb57d4fce6e, type: 2}
  - {fileID: 11400000, guid: c140a985d6b76724b9c74e46ea801a96, type: 2}
  m_ActiveProfileId: 4df1744e6da5ff14198c198257a9f14d
  m_HostingServicesManager:
    m_HostingServiceInfos: []
    m_Settings: {fileID: 11400000}
    m_NextInstanceId: 0
    m_RegisteredServiceTypeRefs: []
